<?xml version="1.0" encoding="UTF-8" standalone="no"?>
<!-- Created with Inkscape (http://www.inkscape.org/) -->

<svg
   xmlns:dc="http://purl.org/dc/elements/1.1/"
   xmlns:cc="http://creativecommons.org/ns#"
   xmlns:rdf="http://www.w3.org/1999/02/22-rdf-syntax-ns#"
   xmlns:svg="http://www.w3.org/2000/svg"
   xmlns="http://www.w3.org/2000/svg"
   xmlns:sodipodi="http://sodipodi.sourceforge.net/DTD/sodipodi-0.dtd"
   xmlns:inkscape="http://www.inkscape.org/namespaces/inkscape"
   width="512"
   height="512"
   viewBox="0 0 135.46666 135.46667"
   version="1.1"
   id="svg8"
   inkscape:version="0.92.2 (5c3e80d, 2017-08-06)"
   sodipodi:docname="symbol.svg">
  <defs
     id="defs2" />
  <sodipodi:namedview
     id="base"
     pagecolor="#ffffff"
     bordercolor="#666666"
     borderopacity="1.0"
     inkscape:pageopacity="0.0"
     inkscape:pageshadow="2"
     inkscape:zoom="0.98994949"
     inkscape:cx="216.65228"
     inkscape:cy="196.89597"
     inkscape:document-units="mm"
     inkscape:current-layer="layer1"
     showgrid="false"
     units="px"
     inkscape:window-width="1378"
     inkscape:window-height="877"
     inkscape:window-x="-8"
     inkscape:window-y="-8"
     inkscape:window-maximized="1" />
  <metadata
     id="metadata5">
    <rdf:RDF>
      <cc:Work
         rdf:about="">
        <dc:format>image/svg+xml</dc:format>
        <dc:type
           rdf:resource="http://purl.org/dc/dcmitype/StillImage" />
        <dc:title />
      </cc:Work>
    </rdf:RDF>
  </metadata>
  <g
     inkscape:label="Layer 1"
     inkscape:groupmode="layer"
     id="layer1"
     transform="translate(0,-161.53332)">
    <ellipse
       style="opacity:1;fill:#ab4949;fill-opacity:1;stroke:none;stroke-width:4.12764072;stroke-miterlimit:4;stroke-dasharray:none;stroke-opacity:1"
       id="path1454"
       cx="60.832703"
       cy="237.09029"
       rx="60.130062"
       ry="57.889805" />
    <g
       id="g1452"
       style="fill:#f9f9f9"
       transform="matrix(0.99358947,0,0,0.99358947,5.2409517,1.4697071)">
      <path
         id="path1371"
         d="m 51.430987,255.74421 -1.599528,1.53518 c -0.879745,0.84427 -2.049989,2.04476 -2.600583,2.66778 l -1.001056,1.1326 h 2.092652 c 1.471436,0 2.162611,-0.18238 2.328397,-0.61442 0.129663,-0.3379 0.358114,-1.53841 0.507932,-2.66777 z"
         style="opacity:1;fill:#f9f9f9;fill-opacity:1;stroke:none;stroke-width:4.03852606;stroke-miterlimit:4;stroke-dasharray:none;stroke-opacity:1"
         inkscape:connector-curvature="0" />
      <g
         style="fill:#f9f9f9"
         id="g1445">
        <path
           style="opacity:1;fill:#f9f9f9;fill-opacity:1;stroke:none;stroke-width:4.03852606;stroke-miterlimit:4;stroke-dasharray:none;stroke-opacity:1"
           d="m 61.718299,176.98871 c -6.584252,0.62108 -18.347272,4.4473 -19.081579,6.20678 -0.409919,0.98224 -13.266479,74.23204 -13.064419,74.43411 0.206871,0.20686 6.49482,-5.76373 20.043346,-19.03261 l 5.925482,-5.80306 4.905634,-27.84339 c 2.993837,-16.99295 5.10993,-27.98644 5.430078,-28.2101 15.127549,4.54068 54.015059,18.19541 38.503109,18.10615 -8.781124,-0.0504 -12.58834,0.29074 -17.691605,1.58529 -11.208119,2.84318 -18.318956,9.11292 -22.014139,19.41014 -0.807436,2.25005 -2.549618,10.13975 -2.237857,10.1347 0.325452,-0.006 2.663281,-2.22636 21.70551,-20.62017 4.193405,-4.05062 4.214676,-3.65778 0.0353,0.65712 -0.692123,0.7146 -3.767113,3.87793 -6.833152,7.0296 -3.066037,3.15167 -7.82708,8.05234 -10.579997,10.89034 l -5.005285,5.1596 -1.312534,7.16342 c -0.721942,3.93979 -1.201611,7.27435 -1.065972,7.40999 0.135623,0.13562 0.772168,-0.30401 1.415031,-0.97714 1.745899,-1.82806 31.242223,-30.43853 35.532393,-34.46529 0.362953,-0.34065 2.883014,-2.75354 5.600347,-5.36174 l 4.94093,-4.74221 -4.55885,4.74221 c -2.5072,2.6082 -6.502234,6.75169 -8.877975,9.20767 -4.475799,4.62694 -5.497668,5.97422 -3.447895,4.54518 1.94605,-1.35671 3.846904,-1.83741 8.21288,-2.07613 4.83798,-0.26454 12.07513,0.36149 20.41063,1.7658 3.27681,0.55204 6.10068,1.0039 6.27511,1.0039 0.49328,0 -0.99387,-3.9732 -2.93654,-7.8456 -2.22064,-4.42638 -0.94182,-6.26999 -10.1452,-14.57423 -18.636507,-13.7928 -32.383288,-19.61897 -50.082784,-17.90033 z"
           id="path1401"
           inkscape:connector-curvature="0"
           sodipodi:nodetypes="ccccccccsscscscccccccccccscsccc" />
        <path
           style="opacity:1;fill:#f9f9f9;fill-opacity:1;stroke:none;stroke-width:4.03852606;stroke-miterlimit:4;stroke-dasharray:none;stroke-opacity:1"
           d="m 38.479563,193.06444 c -26.474073,9.56537 -33.0003449,22.21992 -33.0180401,49.57379 54.9981491,50.511 69.8576811,71.24832 108.6260571,31.10565 -0.11767,-0.12221 -2.25429,0.12265 -4.74847,0.5438 -10.247684,1.7303 -22.157364,2.20474 -26.082146,1.03921 -4.081177,-1.21197 -5.887721,-3.7723 -5.903844,-8.3672 -0.0046,-1.45256 1.523562,-11.24725 3.489464,-22.3575 3.160944,-17.86411 4.416801,-23.36184 5.615713,-24.58853 0.210864,-0.21577 0.377353,-0.58777 0.370128,-0.82624 -0.0078,-0.23848 -0.248836,-0.12328 -0.536973,0.25567 -0.288151,0.37888 -5.921951,6.23228 -12.519472,13.00747 -14.754907,15.15227 -15.388227,15.83524 -15.630267,16.86081 -0.983234,4.16607 -3.507612,20.38058 -3.501991,22.4936 0.02799,10.52916 -4.873231,17.80659 5.81995,21.34426 -17.23394,-1.32353 -49.62446,-24.48342 -54.9981491,-50.511 -1.9343532,-17.75776 4.1321457,-35.26931 16.6324621,-48.01144 5.252672,-5.35429 12.033244,-10.0966 18.146577,-12.69201 1.442914,-0.6126 2.651875,-1.12661 2.686566,-1.14228 0.03215,-0.0145 -4.89024,14.72212 -4.447565,12.27194 z"
           id="path1399"
           inkscape:connector-curvature="0"
           sodipodi:nodetypes="ccccscscccsccccsccc" />
        <path
           inkscape:connector-curvature="0"
           style="opacity:1;fill:#f9f9f9;fill-opacity:1;stroke:none;stroke-width:4.03852606;stroke-miterlimit:4;stroke-dasharray:none;stroke-opacity:1"
           d="m 54.497933,237.12957 c -0.329895,-0.007 -1.371353,0.93669 -3.289592,2.96615 -1.86395,1.97202 -7.012822,7.32212 -11.441545,11.88912 -4.428725,4.567 -8.113829,8.48156 -8.189535,8.69917 -0.08306,0.23877 1.882119,0.39076 4.955176,0.38323 l 5.092408,-0.0125 5.431784,-5.25241 5.431219,-5.25242 1.072237,-6.2455 c 0.589737,-3.43495 1.064322,-6.59394 1.054581,-7.01993 -0.0023,-0.10116 -0.0406,-0.15328 -0.116733,-0.15488 z"
           id="path1395" />
      </g>
    </g>
    <path
       style="fill:#c15f5f;fill-opacity:1;stroke-width:0.4102875"
       d="m 85.986834,295.13325 c -0.225657,-0.078 -1.671058,-0.26439 -3.211997,-0.414 -1.540939,-0.14964 -2.730771,-0.34297 -2.644055,-0.42969 0.08668,-0.0867 2.097374,-0.53199 4.468152,-0.98949 11.61832,-2.2421 21.346716,-7.29467 29.988816,-15.57503 2.32215,-2.22494 4.12646,-4.14471 4.00959,-4.26614 -0.11692,-0.12141 -2.24013,0.12157 -4.71832,0.54003 -10.182,1.7192 -22.015384,2.19077 -25.915006,1.03271 -4.055014,-1.2042 -5.84988,-3.74798 -5.865899,-8.31342 -0.0046,-1.44325 1.513926,-11.17545 3.467227,-22.21448 3.14068,-17.74959 4.388196,-23.21214 5.579423,-24.43097 0.209515,-0.21438 0.375081,-0.58362 0.367903,-0.82058 -0.0077,-0.23695 -0.24729,-0.12281 -0.533579,0.2537 -0.286305,0.37646 -5.883903,6.19228 -12.439132,12.92405 -14.66032,15.05513 -15.289404,15.73374 -15.529893,16.75273 -0.976931,4.13937 -3.485241,20.24991 -3.479656,22.34937 0.02782,10.46167 5.984891,18.27771 16.609526,21.79269 l 2.872006,0.95017 -2.256583,0.35961 c -1.241112,0.19777 -5.487591,0.26473 -9.43661,0.14885 -10.012095,-0.29387 -15.371725,-1.58527 -24.001822,-5.78318 -18.102128,-8.80537 -30.464901,-26.39284 -32.649473,-46.44762 -1.9219524,-17.64394 4.105569,-35.0431 16.525753,-47.70356 5.218999,-5.31995 11.956079,-10.03203 18.03022,-12.61082 1.433666,-0.60866 2.634863,-1.11936 2.669331,-1.13493 0.0868,-0.0391 2.481716,-13.53297 2.826763,-15.92693 l 0.280899,-1.94885 h 10.833851 10.833848 l -0.22132,0.92314 c -0.12173,0.50773 -0.666784,3.48943 -1.211236,6.62598 -0.544446,3.13657 -1.203546,5.83489 -1.464664,5.99627 -0.261116,0.16138 -1.704347,0.4094 -3.207177,0.55116 -6.542043,0.61709 -18.229887,4.41886 -18.959486,6.16706 -0.407292,0.97593 -13.181289,73.7562 -12.980523,73.95697 0.205543,0.20553 6.452923,-5.72693 19.914597,-18.91074 l 5.887639,-5.76612 4.874058,-27.66503 c 2.974648,-16.88402 5.07717,-27.80693 5.395266,-28.02914 0.729793,-0.50983 9.222974,-0.0635 13.650403,0.71732 10.281296,1.81323 21.339476,7.34806 28.979656,14.50486 l 3.00001,2.81021 -7.37378,-0.0422 c -8.72484,-0.0501 -12.507596,0.28888 -17.578146,1.57512 -11.13627,2.82495 -18.20135,9.05432 -21.872843,19.28553 -0.80226,2.23563 -2.533038,10.07475 -2.223276,10.06975 0.323367,-0.006 2.646085,-2.21179 21.566242,-20.48769 4.166526,-4.02465 4.18732,-3.63446 0.03473,0.65278 -0.687686,0.71001 -3.742846,3.85304 -6.789229,6.9845 -3.046383,3.13147 -7.776834,8.00072 -10.512104,10.82051 l -4.973228,5.12693 -1.304205,7.11735 c -0.717313,3.91453 -1.193946,7.22761 -1.059176,7.36237 0.134754,0.13476 0.767636,-0.30217 1.406378,-0.97099 1.734707,-1.81633 31.041662,-30.24322 35.304327,-34.24416 0.36063,-0.33848 2.86472,-2.73574 5.56463,-5.32723 l 4.90895,-4.71183 -4.52934,4.71183 c -2.49112,2.59149 -6.46067,6.70836 -8.821176,9.14859 -4.447108,4.59728 -5.462393,5.93559 -3.425759,4.51571 1.933573,-1.34802 3.82224,-1.82541 8.160225,-2.06261 4.80697,-0.26284 11.99768,0.35929 20.27975,1.75459 3.2558,0.54851 6.06145,0.9973 6.23476,0.9973 0.49013,0 -0.98756,-3.94791 -2.91778,-7.79549 -2.20639,-4.39801 -4.59021,-8.09446 -7.372,-11.43128 l -2.70796,-3.04932 c 5.49755,1.17094 11.19816,1.98737 16.66251,3.5367 1.11148,0.32801 1.80444,0.76726 1.77529,1.12524 -0.0871,1.06672 -4.26289,16.986 -4.62054,17.61415 -0.20753,0.36446 -0.1315,1.3683 0.18639,2.46173 1.41345,4.86132 1.97432,9.35392 1.97206,15.79604 -0.003,9.51383 -1.59005,16.80275 -5.45141,25.04269 -1.43525,3.06279 -6.57893,11.36189 -7.32733,11.82236 -0.16622,0.10237 -0.1838,2.74261 -0.039,5.86743 0.14468,3.12481 0.28322,7.3739 0.30771,9.44244 l 0.0445,3.76098 -3.59,0.82787 c -7.50839,1.73149 -18.330985,2.94937 -25.745563,2.89718 -2.256582,-0.0158 -4.287509,-0.0926 -4.513167,-0.17087 z m -33.990951,-39.50093 5.39665,-5.21878 1.065378,-6.20533 c 0.585957,-3.41294 1.057454,-6.55163 1.047776,-6.97489 -0.01225,-0.53611 -1.039098,0.31116 -3.384872,2.79296 -1.852,1.95936 -6.967548,7.27518 -11.367881,11.81291 -4.400335,4.53772 -8.06215,8.42732 -8.13737,8.64354 -0.08252,0.23723 1.870095,0.38823 4.923451,0.38074 l 5.060212,-0.0124 5.396656,-5.21879 z m 3.570977,4.63311 c 0.128832,-0.33574 0.356036,-1.52853 0.504891,-2.65064 l 0.270648,-2.04023 -1.589286,1.52515 c -0.874107,0.83886 -2.036886,2.03164 -2.58395,2.65067 l -0.994669,1.12549 h 2.079063 c 1.462002,0 2.148581,-0.18117 2.313303,-0.61044 z"
       id="path1367"
       inkscape:connector-curvature="0"
       sodipodi:nodetypes="cccccccscscccscsccccsssccccccccccccscsccsccsscscsscscccsccccscscccccccccccccccccccsccsccccccsccccsc" />
  </g>
</svg>
